…
#### Break the dataset so that it has information for 3 countries: Canada, India and Rwanda

``` r
life_exp_countries <- gapminder %>% 
  filter(country %in% c("Canada", "India", "Rwanda")) %>% 
  select(country, year, lifeExp)
```

    ## Warning: package 'bindrcpp' was built under R version 3.3.2

``` r
life_exp_countries
```

    ## # A tibble: 36 x 3
    ##    country  year lifeExp
    ##     <fctr> <int>   <dbl>
    ##  1  Canada  1952   68.75
    ##  2  Canada  1957   69.96
    ##  3  Canada  1962   71.30
    ##  4  Canada  1967   72.13
    ##  5  Canada  1972   72.88
    ##  6  Canada  1977   74.21
    ##  7  Canada  1982   75.76
    ##  8  Canada  1987   76.86
    ##  9  Canada  1992   77.95
    ## 10  Canada  1997   78.61
    ## # ... with 26 more rows
…
    ## Parsed with column specification:
    ## cols(
    ##   CountryName = col_character(),
    ##   CapitalName = col_character(),
    ##   CapitalLatitude = col_character(),
    ##   CapitalLongitude = col_double(),
    ##   CountryCode = col_character(),
    ##   ContinentName = col_character()
    ## )

``` r
capital_info
```

    ## # A tibble: 245 x 6
    ##                                 CountryName       CapitalName
    ##                                       <chr>             <chr>
    ##  1                               Somaliland          Hargeisa
    ##  2 South Georgia and South Sandwich Islands King Edward Point
    ##  3      French Southern and Antarctic Lands Port-aux-Français
    ##  4                                Palestine         Jerusalem
    ##  5                            Aland Islands         Mariehamn
    ##  6                                    Nauru             Yaren
    ##  7                             Saint Martin           Marigot
    ##  8                                  Tokelau             Atafu
    ##  9                           Western Sahara          El-Aaiún
    ## 10                              Afghanistan             Kabul
    ## # ... with 235 more rows, and 4 more variables: CapitalLatitude <chr>,
    ## #   CapitalLongitude <dbl>, CountryCode <chr>, ContinentName <chr>
…
``` r
gap_minder_with_capital_inner_join <- inner_join(gapminder, capital_info_hemisphere, by = "country")
```

    ## Warning: Column `country` joining factor and character vector, coercing
    ## into character vector

``` r
gap_minder_with_capital_inner_join
```

    ## # A tibble: 1,584 x 9
    ##        country continent  year lifeExp      pop gdpPercap capital
    ##          <chr>    <fctr> <int>   <dbl>    <int>     <dbl>   <chr>
    ##  1 Afghanistan      Asia  1952  28.801  8425333  779.4453   Kabul
    ##  2 Afghanistan      Asia  1957  30.332  9240934  820.8530   Kabul
    ##  3 Afghanistan      Asia  1962  31.997 10267083  853.1007   Kabul
    ##  4 Afghanistan      Asia  1967  34.020 11537966  836.1971   Kabul
    ##  5 Afghanistan      Asia  1972  36.088 13079460  739.9811   Kabul
    ##  6 Afghanistan      Asia  1977  38.438 14880372  786.1134   Kabul
    ##  7 Afghanistan      Asia  1982  39.854 12881816  978.0114   Kabul
    ##  8 Afghanistan      Asia  1987  40.822 13867957  852.3959   Kabul
    ##  9 Afghanistan      Asia  1992  41.674 16317921  649.3414   Kabul
    ## 10 Afghanistan      Asia  1997  41.763 22227415  635.3414   Kabul
    ## # ... with 1,574 more rows, and 2 more variables: capital_latitude <chr>,
    ## #   hemisphere <dbl>
…
So, these datasets are indeed quite different with respect to the country info they carry. The capital\_info dataset seems to be more exhaustive than the gapminder dataset.

Let's look at the differnces better using *anti\_join*

``` r
anti_join(capital_info_hemisphere, gapminder, by = "country")
```

    ## Warning: Column `country` joining character vector and factor, coercing
    ## into character vector

    ## # A tibble: 113 x 4
    ##                                     country           capital
    ##                                       <chr>             <chr>
    ##  1                               Somaliland          Hargeisa
    ##  2 South Georgia and South Sandwich Islands King Edward Point
    ##  3      French Southern and Antarctic Lands Port-aux-Français
    ##  4                                Palestine         Jerusalem
    ##  5                            Aland Islands         Mariehamn
    ##  6                                    Nauru             Yaren
    ##  7                             Saint Martin           Marigot
    ##  8                                  Tokelau             Atafu
    ##  9                           Western Sahara          El-Aaiún
    ## 10                           American Samoa         Pago Pago
    ## # ... with 103 more rows, and 2 more variables: capital_latitude <chr>,
    ## #   hemisphere <dbl>

As gapminder is our primary focus let's see how does it look with the added information from the capital\_info dataset, for this we will use *left\_join*

``` r
left_join(gapminder, capital_info_hemisphere, by = "country")
```

    ## Warning: Column `country` joining factor and character vector, coercing
    ## into character vector

    ## # A tibble: 1,704 x 9
    ##        country continent  year lifeExp      pop gdpPercap capital
    ##          <chr>    <fctr> <int>   <dbl>    <int>     <dbl>   <chr>
    ##  1 Afghanistan      Asia  1952  28.801  8425333  779.4453   Kabul
    ##  2 Afghanistan      Asia  1957  30.332  9240934  820.8530   Kabul
    ##  3 Afghanistan      Asia  1962  31.997 10267083  853.1007   Kabul
    ##  4 Afghanistan      Asia  1967  34.020 11537966  836.1971   Kabul
    ##  5 Afghanistan      Asia  1972  36.088 13079460  739.9811   Kabul
    ##  6 Afghanistan      Asia  1977  38.438 14880372  786.1134   Kabul
    ##  7 Afghanistan      Asia  1982  39.854 12881816  978.0114   Kabul
    ##  8 Afghanistan      Asia  1987  40.822 13867957  852.3959   Kabul
    ##  9 Afghanistan      Asia  1992  41.674 16317921  649.3414   Kabul
    ## 10 Afghanistan      Asia  1997  41.763 22227415  635.3414   Kabul
    ## # ... with 1,694 more rows, and 2 more variables: capital_latitude <chr>,
    ## #   hemisphere <dbl>

For all the data combined into a single dataset we will use *full join*

``` r
gapminder_metadata <- full_join(gapminder, capital_info_hemisphere, by = "country")
```

    ## Warning: Column `country` joining factor and character vector, coercing
    ## into character vector

``` r
gapminder_metadata
```

    ## # A tibble: 1,817 x 9
    ##        country continent  year lifeExp      pop gdpPercap capital
    ##          <chr>    <fctr> <int>   <dbl>    <int>     <dbl>   <chr>
    ##  1 Afghanistan      Asia  1952  28.801  8425333  779.4453   Kabul
    ##  2 Afghanistan      Asia  1957  30.332  9240934  820.8530   Kabul
    ##  3 Afghanistan      Asia  1962  31.997 10267083  853.1007   Kabul
    ##  4 Afghanistan      Asia  1967  34.020 11537966  836.1971   Kabul
    ##  5 Afghanistan      Asia  1972  36.088 13079460  739.9811   Kabul
    ##  6 Afghanistan      Asia  1977  38.438 14880372  786.1134   Kabul
    ##  7 Afghanistan      Asia  1982  39.854 12881816  978.0114   Kabul
    ##  8 Afghanistan      Asia  1987  40.822 13867957  852.3959   Kabul
    ##  9 Afghanistan      Asia  1992  41.674 16317921  649.3414   Kabul
    ## 10 Afghanistan      Asia  1997  41.763 22227415  635.3414   Kabul
    ## # ... with 1,807 more rows, and 2 more variables: capital_latitude <chr>,
    ## #   hemisphere <dbl>
…
